{
    "prefs": {
        "server": [
            {
                "factoryName": "quickload",
                "name": "RNA-Seq",
                "url": "http://lorainelab-quickload.scidas.org/rnaseq",
                "loadPriority": "0",
                "defaultDataProviderId": "IgbDefaultDataProviderId:2"
            },
            {
                "factoryName": "quickload",
                "name": "IGB Quickload",
                "url": "http://igbquickload.org/quickload",
                "loadPriority": "2",
                "mirror": "http://lorainelab-quickload.scidas.org/quickload",
                "defaultDataProviderId": "IgbDefaultDataProviderId:1"
            },
            {
                "factoryName": "quickload",
                "name": "Blueberry",
                "url": "http://igbquickload.org/blueberry",
                "loadPriority": "3",
                "mirror": "http://lorainelab-quickload.scidas.org/blueberry",
                "defaultDataProviderId": "IgbDefaultDataProviderId:3"
            },
            {
                "factoryName": "quickload",
                "name": "SoySeq",
                "url": "http://igbquickload.org/soyseq",
                "loadPriority": "4",
                "mirror": "http://lorainelab-quickload.scidas.org/soyseq",
                "defaultDataProviderId": "IgbDefaultDataProviderId:4"
            },
            {
                "factoryName": "das",
                "name": "UCSC",
                "url": "http://genome.cse.ucsc.edu/cgi-bin/das",
                "loadPriority": "5",
                "status": "disabled",
                "defaultDataProviderId": "IgbDefaultDataProviderId:5"
            },
            {
                "factoryName": "das2",
                "name": "UofUtahBioinfoCore",
                "url": "http://bioserver.hci.utah.edu:8080/DAS2DB",
                "loadPriority": "6",
                "status": "disabled",
                "defaultDataProviderId": "IgbDefaultDataProviderId:6"
            },
            {
                "factoryName": "quickload",
                "name": "Bio-Analytic Resource",
                "url": "http://lorainelab-quickload.scidas.org/bar",
                "loadPriority": "1",
                "defaultDataProviderId": "IgbDefaultDataProviderId:7"
            },
            {
                "factoryName": "quickload",
                "name": "DNA-Seq",
                "url": "http://lorainelab-quickload.scidas.org/dnaseq/",
                "loadPriority": "1",
                "defaultDataProviderId": "IgbDefaultDataProviderId:8"
            },
            {
                "factoryName": "quickload",
                "name": "ChIP-Seq",
                "url": "http://lorainelab-quickload.scidas.org/chipseq/",
                "loadPriority": "1",
                "defaultDataProviderId": "IgbDefaultDataProviderId:9"
            }
            
        ],
        "repository": [
            {
                "name": "BioViz",
                "url": "http://bioviz.org/igbserver",
                "enabled": "true",
                "default": "true"
            },
            {
                "name": "BioViz development",
                "url": "http://eos.transvar.org/igb_plugins",
                "enabled": "false",
                "default": "true"
            }
        ],
        "annotation_url": [
            {
                "annot_id_regex": ".*",
                "name": "Google",
                "url": "http://www.google.com/search?q=$$",
                "type": "default",
                "image_icon_path": "google.png",
                "description": "Always support Google searching"
            },
            {
                "annot_type_regex": "(EST)|(mRNA)|(RefGene)|(RefSeq)",
                "name": "NCBI",
                "description": "",
                "url": "http://www.ncbi.nlm.nih.gov/nuccore/$$",
                "type": "default",
                "image_icon_path": "ncbi.png",
                "description": "Any RefSeq mRNA alignment"
            },
            {
                "annot_id_regex": "^AT[1-5CM]G\\d{5,}\\.\\d+$",
                "name": "TAIR",
                "url": "http://www.arabidopsis.org/servlets/TairObject?type=gene&name=$$",
                "type": "default",
                "image_icon_path": "tair.png",
                "description": "Match AGI gene models names for model organism database"
            },
            {
                "annot_id_regex": "^DDB_G\\d+$",
                "name": "DictyBase Gene",
                "url": "http://dictybase.org/gene/$$",
                "type": "default",
                "description": "Match slime mold gene models names for model organism database"
            },
            {
                "annot_id_regex": "^DDB\\d+$",
                "name": "DictyBase",
                "url": "http://www.dictybase.org/db/cgi-bin/search/search.pl?query=$$",
                "type": "default",
                "description": "Match slime mold gene models names for model organism database"
            },
            {
                "annot_type_regex": "(?i).*sanger_pombe$",
                "name": "GeneDB",
                "url": "http://www.genedb.org/genedb/Search?name=$$&organism=pombe&desc=yes&wildcard=yes&searchId=Search",
                "type": "default",
                "description": "fission yeast"
            },
            {
                "annot_type_regex": ".*Maize Transcripts.*",
                "name": "MaizeSequence.org",
                "url": "http://www.maizesequence.org/Zea_mays/Transcript/Transcript?t=$$",
                "type": "default",
                "description": "corn - annotation titles should be something like 'Maize Transcripts 5b release'"
            },
            {
                "annot_type_regex": "S. cerevisiae genes",
                "name": "SGD",
                "url": "http://www.yeastgenome.org/cgi-bin/locus.fpl?locus=$$",
                "type": "default",
                "description": "budding yeast"
            },
            {
                "annot_type_regex": "(?i).* netaffx consensus",
                "name": "NetAffx",
                "url": "https://www.affymetrix.com/analysis/netaffx/fullrecord.affx?pk=$$",
                "type": "default",
                "description": "Affymetrix Link-outs"
            },
            {
                "annot_type_regex": "(?i).*Ex-1_0-st.*Probes$",
                "name": "NetAffx Probeset Details",
                "url": "http://www.affymetrix.com/analysis/netaffx/exon/probe_set.affx?pk=$$",
                "type": "default",
                "description": "Affymetrix Link-outs"
            },
            {
                "annot_type_regex": "(?i).*Ex-1_0-st.*Transcripts$",
                "name": "NetAffx Transcript Details",
                "url": "http://www.affymetrix.com/analysis/netaffx/exon/transcript.affx?pk=$$",
                "type": "default",
                "description": "Affymetrix Link-outs"
            },
            {
                "annot_id_regex": "^FLYBASE:.*$",
                "id_field": "db_xref",
                "name": "Flybase",
                "url": "http://flybase.org/.bin/fbidq.html?$$",
                "type": "default",
                "description": "FLYBASE"
            },
            {
                "annot_id_regex": "^dictyBase:.*$",
                "id_field": "db_xref",
                "name": "DictyBase",
                "url": "http://dictybase.org/db/cgi-bin/search/search.pl?query=$$",
                "type": "default",
                "description": "DictyBase"
            },
            {
                "annot_id_regex": "^GeneID:.*$",
                "id_field": "db_xref",
                "name": "Entrez",
                "url": "http://www.ncbi.nlm.nih.gov/gene/$$",
                "type": "default",
                "description": "Entrez"
            },
            {
                "annot_id_regex": ".*NCBI.*",
                "name": "Entrez cross-database search",
                "url": "http://www.ncbi.nlm.nih.gov/gquery?term=$$",
                "type": "default",
                "description": "Entrez cross-database search"
            }
        ]
    }
}
